<?xml version="1.0" encoding="UTF-8" standalone="no"?>
<!-- Created with Inkscape (http://www.inkscape.org/) -->

<svg
   xmlns:osb="http://www.openswatchbook.org/uri/2009/osb"
   xmlns:dc="http://purl.org/dc/elements/1.1/"
   xmlns:cc="http://creativecommons.org/ns#"
   xmlns:rdf="http://www.w3.org/1999/02/22-rdf-syntax-ns#"
   xmlns:svg="http://www.w3.org/2000/svg"
   xmlns="http://www.w3.org/2000/svg"
   xmlns:sodipodi="http://sodipodi.sourceforge.net/DTD/sodipodi-0.dtd"
   xmlns:inkscape="http://www.inkscape.org/namespaces/inkscape"
   width="210mm"
   height="297mm"
   viewBox="0 0 210 297"
   version="1.1"
   id="svg8"
   inkscape:version="0.92.2 2405546, 2018-03-11"
   sodipodi:docname="fire.svg"
   inkscape:export-filename="/home/concaveusr/project/qeaface2/fig/fire.png"
   inkscape:export-xdpi="96"
   inkscape:export-ydpi="96">
  <defs
     id="defs2">
    <linearGradient
       id="linearGradient6326"
       osb:paint="gradient">
      <stop
         style="stop-color:#000000;stop-opacity:1;"
         offset="0"
         id="stop6322" />
      <stop
         style="stop-color:#000000;stop-opacity:0;"
         offset="1"
         id="stop6324" />
    </linearGradient>
    <marker
       inkscape:stockid="Arrow1Lend"
       orient="auto"
       refY="0.0"
       refX="0.0"
       id="Arrow1Lend"
       style="overflow:visible;"
       inkscape:isstock="true">
      <path
         id="path4531"
         d="M 0.0,0.0 L 5.0,-5.0 L -12.5,0.0 L 5.0,5.0 L 0.0,0.0 z "
         style="fill-rule:evenodd;stroke:#000000;stroke-width:1pt;stroke-opacity:1;fill:#000000;fill-opacity:1"
         transform="scale(0.8) rotate(180) translate(12.5,0)" />
    </marker>
    <marker
       inkscape:stockid="Arrow1Lstart"
       orient="auto"
       refY="0.0"
       refX="0.0"
       id="Arrow1Lstart"
       style="overflow:visible"
       inkscape:isstock="true">
      <path
         id="path4528"
         d="M 0.0,0.0 L 5.0,-5.0 L -12.5,0.0 L 5.0,5.0 L 0.0,0.0 z "
         style="fill-rule:evenodd;stroke:#000000;stroke-width:1pt;stroke-opacity:1;fill:#000000;fill-opacity:1"
         transform="scale(0.8) translate(12.5,0)" />
    </marker>
  </defs>
  <sodipodi:namedview
     id="base"
     pagecolor="#ffffff"
     bordercolor="#666666"
     borderopacity="1.0"
     inkscape:pageopacity="0.0"
     inkscape:pageshadow="2"
     inkscape:zoom="1.6933333"
     inkscape:cx="396.8504"
     inkscape:cy="596.02832"
     inkscape:document-units="mm"
     inkscape:current-layer="layer1"
     showgrid="false"
     inkscape:window-width="958"
     inkscape:window-height="527"
     inkscape:window-x="960"
     inkscape:window-y="21"
     inkscape:window-maximized="0" />
  <metadata
     id="metadata5">
    <rdf:RDF>
      <cc:Work
         rdf:about="">
        <dc:format>image/svg+xml</dc:format>
        <dc:type
           rdf:resource="http://purl.org/dc/dcmitype/StillImage" />
        <dc:title />
      </cc:Work>
    </rdf:RDF>
  </metadata>
  <g
     inkscape:label="Layer 1"
     inkscape:groupmode="layer"
     id="layer1">
    <path
       style="fill:none;stroke:#000000;stroke-width:0.265;stroke-linecap:butt;stroke-linejoin:miter;stroke-opacity:1;stroke-miterlimit:4;stroke-dasharray:none;marker-start:url(#Arrow1Lstart)"
       d="m 26.458333,43.000001 c 0,146.654759 0,146.654759 0,146.654759"
       id="path4526"
       inkscape:connector-curvature="0" />
    <path
       style="fill:none;stroke:#000000;stroke-width:0.265;stroke-linecap:butt;stroke-linejoin:miter;stroke-opacity:1;stroke-miterlimit:4;stroke-dasharray:none;marker-end:url(#Arrow1Lend)"
       d="m 26.458333,189.65476 c 156.104167,0 156.104167,0 156.104167,0"
       id="path4838"
       inkscape:connector-curvature="0" />
    <ellipse
       style="fill:none;fill-opacity:1;stroke:#ff7500;stroke-width:0.2868484;stroke-miterlimit:4;stroke-dasharray:none;stroke-opacity:1"
       id="path4866"
       cx="10.862655"
       cy="141.68364"
       rx="13.012076"
       ry="41.397591"
       transform="matrix(0.6071442,-0.79459167,0.4389813,0.8984962,0,0)" />
    <path
       style="fill:none;stroke:#000000;stroke-width:0.26458332px;stroke-linecap:butt;stroke-linejoin:miter;stroke-opacity:1"
       d="M 26.458333,189.65476 C 181.76875,142.21875 181.76875,142.21875 181.76875,142.21875"
       id="path6355"
       inkscape:connector-curvature="0" />
    <ellipse
       style="fill:none;fill-opacity:1;stroke:#0000ff;stroke-width:0.2868484;stroke-miterlimit:4;stroke-dasharray:none;stroke-opacity:1"
       id="path4866-3"
       cx="47.33963"
       cy="115.34209"
       rx="13.012076"
       ry="41.397591"
       transform="matrix(0.6071442,-0.79459167,0.4389813,0.8984962,0,0)" />
    <path
       style="fill:none;stroke:#000000;stroke-width:0.28177136;stroke-linecap:butt;stroke-linejoin:miter;stroke-opacity:1;stroke-miterlimit:4;stroke-dasharray:3.38125634,3.38125634;stroke-dashoffset:0"
       d="M 81.155252,173.05506 C 60.214928,127.67086 60.214928,127.67086 60.214928,127.67086"
       id="path6374"
       inkscape:connector-curvature="0" />
    <path
       style="fill:none;stroke:#000000;stroke-width:0.25870752;stroke-linecap:butt;stroke-linejoin:miter;stroke-opacity:1;stroke-miterlimit:4;stroke-dasharray:3.10449025,3.10449025;stroke-dashoffset:0"
       d="m 78.374269,111.84057 23.945821,54.73812"
       id="path6376"
       inkscape:connector-curvature="0" />
    <path
       style="fill:none;stroke:#000000;stroke-width:0.26438576;stroke-linecap:butt;stroke-linejoin:miter;stroke-opacity:1;stroke-miterlimit:4;stroke-dasharray:3.17262914,3.17262914;stroke-dashoffset:0"
       d="m 70.934269,75.26672 c 41.913491,87.99289 41.913491,87.99289 41.913491,87.99289"
       id="path6378"
       inkscape:connector-curvature="0" />
    <path
       style="fill:none;stroke:#000000;stroke-width:0.28691405;stroke-linecap:butt;stroke-linejoin:miter;stroke-miterlimit:4;stroke-dasharray:3.44296853, 3.44296853;stroke-dashoffset:0;stroke-opacity:1"
       d="M 89.649256,60.920899 C 135.13419,156.41166 135.13419,156.41166 135.13419,156.41166"
       id="path6378-6"
       inkscape:connector-curvature="0" />
    <circle
       style="fill:#000000;fill-opacity:1;stroke:#0000ff;stroke-width:0.02212169;stroke-miterlimit:4;stroke-dasharray:none;stroke-dashoffset:0;stroke-opacity:1"
       id="path6397-7"
       cx="79.51268"
       cy="67.068024"
       r="1.4394441" />
    <circle
       style="fill:#000000;fill-opacity:1;stroke:#0000ff;stroke-width:0.02212169;stroke-miterlimit:4;stroke-dasharray:none;stroke-dashoffset:0;stroke-opacity:1"
       id="path6397-7-5"
       cx="69.222809"
       cy="120.38829"
       r="1.4394441" />
    <flowRoot
       xml:space="preserve"
       id="flowRoot6474"
       style="font-style:normal;font-weight:normal;font-size:29.3333337px;line-height:1.25;font-family:sans-serif;letter-spacing:0px;word-spacing:0px;fill:#000000;fill-opacity:1;stroke:none;"
       transform="scale(0.26458333)"><flowRegion
         id="flowRegion6476"
         style="font-size:29.3333337px;"><rect
           id="rect6478"
           width="280.27148"
           height="55.453308"
           x="306.72852"
           y="654.06635"
           style="font-size:29.33333397px" /></flowRegion><flowPara
         id="flowPara6480">Within-Class Scatter</flowPara></flowRoot>    <path
       style="fill:none;stroke:#000000;stroke-width:0.26458332px;stroke-linecap:butt;stroke-linejoin:miter;stroke-opacity:1"
       d="M 69.320832,120.7875 29.104166,28.183334"
       id="path6482"
       inkscape:connector-curvature="0" />
    <path
       style="fill:none;stroke:#000000;stroke-width:0.26357317px;stroke-linecap:butt;stroke-linejoin:miter;stroke-opacity:1"
       d="M 79.309687,67.045131 C 57.830257,14.161161 57.830257,14.161161 57.830257,14.161161 L 29.104754,28.388829"
       id="path6484"
       inkscape:connector-curvature="0"
       inkscape:export-xdpi="96"
       inkscape:export-ydpi="96" />
    <flowRoot
       xml:space="preserve"
       id="flowRoot6486"
       style="font-style:normal;font-weight:normal;font-size:29.3333337px;line-height:1.25;font-family:sans-serif;letter-spacing:0px;word-spacing:0px;fill:#000000;fill-opacity:1;stroke:none;"
       transform="scale(0.26458333)"><flowRegion
         id="flowRegion6488"
         style="font-size:29.3333337px;"><rect
           id="rect6490"
           width="413"
           height="40"
           x="95"
           y="8.5196848"
           style="font-size:29.3333337px;" /></flowRegion><flowPara
         id="flowPara6492">Between-Calass Scatter</flowPara></flowRoot>  </g>
</svg>
